{
  "cats": {
    "Typeclasses": [
      "cats/typeclasses/semigroup",
      "cats/typeclasses/semigroupK",
      "cats/typeclasses/monoid",
      "cats/typeclasses/monoidK",
      "cats/typeclasses/semigroupal",
      "cats/typeclasses/functor",
      "cats/typeclasses/contravariant",
      "cats/typeclasses/invariant",
      "cats/typeclasses/apply",
      "cats/typeclasses/applicative"    
    ]
  },
  "cats-effect": {
    "Typeclasses": [
      "cats-effect/typeclasses/todo"
    ]
  }
}
